<?xml version="1.0" encoding="UTF-8"?>
<testsuite xmlns:xsi="http://www.w3.org/2001/XMLSchema-instance" xsi:noNamespaceSchemaLocation="https://maven.apache.org/surefire/maven-surefire-plugin/xsd/surefire-test-report.xsd" name="com.example.globalexceptionhandler.GlobalexceptionhandlerApplicationTests" time="2.763" tests="1" errors="0" skipped="0" failures="0">
  <properties>
    <property name="sun.desktop" value="windows"/>
    <property name="awt.toolkit" value="sun.awt.windows.WToolkit"/>
    <property name="file.encoding.pkg" value="sun.io"/>
    <property name="java.specification.version" value="1.8"/>
    <property name="sun.cpu.isalist" value="amd64"/>
    <property name="sun.jnu.encoding" value="GBK"/>
    <property name="java.class.path" value="D:\test\global_exception_handel\target\test-classes;D:\test\global_exception_handel\target\classes;D:\workSpace\ideaMavenData\org\springframework\boot\spring-boot-starter-web\2.7.8-SNAPSHOT\spring-boot-starter-web-2.7.8-SNAPSHOT.jar;D:\workSpace\ideaMavenData\org\springframework\boot\spring-boot-starter\2.7.8-SNAPSHOT\spring-boot-starter-2.7.8-SNAPSHOT.jar;D:\workSpace\ideaMavenData\org\springframework\boot\spring-boot\2.7.8-SNAPSHOT\spring-boot-2.7.8-SNAPSHOT.jar;D:\workSpace\ideaMavenData\org\springframework\boot\spring-boot-starter-logging\2.7.8-SNAPSHOT\spring-boot-starter-logging-2.7.8-SNAPSHOT.jar;D:\workSpace\ideaMavenData\ch\qos\logback\logback-classic\1.2.11\logback-classic-1.2.11.jar;D:\workSpace\ideaMavenData\ch\qos\logback\logback-core\1.2.11\logback-core-1.2.11.jar;D:\workSpace\ideaMavenData\org\apache\logging\log4j\log4j-to-slf4j\2.17.2\log4j-to-slf4j-2.17.2.jar;D:\workSpace\ideaMavenData\org\apache\logging\log4j\log4j-api\2.17.2\log4j-api-2.17.2.jar;D:\workSpace\ideaMavenData\org\slf4j\jul-to-slf4j\1.7.36\jul-to-slf4j-1.7.36.jar;D:\workSpace\ideaMavenData\jakarta\annotation\jakarta.annotation-api\1.3.5\jakarta.annotation-api-1.3.5.jar;D:\workSpace\ideaMavenData\org\yaml\snakeyaml\1.30\snakeyaml-1.30.jar;D:\workSpace\ideaMavenData\org\springframework\boot\spring-boot-starter-json\2.7.8-SNAPSHOT\spring-boot-starter-json-2.7.8-SNAPSHOT.jar;D:\workSpace\ideaMavenData\com\fasterxml\jackson\core\jackson-databind\2.13.4.2\jackson-databind-2.13.4.2.jar;D:\workSpace\ideaMavenData\com\fasterxml\jackson\core\jackson-annotations\2.13.4\jackson-annotations-2.13.4.jar;D:\workSpace\ideaMavenData\com\fasterxml\jackson\core\jackson-core\2.13.4\jackson-core-2.13.4.jar;D:\workSpace\ideaMavenData\com\fasterxml\jackson\datatype\jackson-datatype-jdk8\2.13.4\jackson-datatype-jdk8-2.13.4.jar;D:\workSpace\ideaMavenData\com\fasterxml\jackson\datatype\jackson-datatype-jsr310\2.13.4\jackson-datatype-jsr310-2.13.4.jar;D:\workSpace\ideaMavenData\com\fasterxml\jackson\module\jackson-module-parameter-names\2.13.4\jackson-module-parameter-names-2.13.4.jar;D:\workSpace\ideaMavenData\org\springframework\boot\spring-boot-starter-tomcat\2.7.8-SNAPSHOT\spring-boot-starter-tomcat-2.7.8-SNAPSHOT.jar;D:\workSpace\ideaMavenData\org\apache\tomcat\embed\tomcat-embed-core\9.0.71\tomcat-embed-core-9.0.71.jar;D:\workSpace\ideaMavenData\org\apache\tomcat\embed\tomcat-embed-el\9.0.71\tomcat-embed-el-9.0.71.jar;D:\workSpace\ideaMavenData\org\apache\tomcat\embed\tomcat-embed-websocket\9.0.71\tomcat-embed-websocket-9.0.71.jar;D:\workSpace\ideaMavenData\org\springframework\spring-web\5.3.25\spring-web-5.3.25.jar;D:\workSpace\ideaMavenData\org\springframework\spring-beans\5.3.25\spring-beans-5.3.25.jar;D:\workSpace\ideaMavenData\org\springframework\spring-webmvc\5.3.25\spring-webmvc-5.3.25.jar;D:\workSpace\ideaMavenData\org\springframework\spring-aop\5.3.25\spring-aop-5.3.25.jar;D:\workSpace\ideaMavenData\org\springframework\spring-context\5.3.25\spring-context-5.3.25.jar;D:\workSpace\ideaMavenData\org\springframework\spring-expression\5.3.25\spring-expression-5.3.25.jar;D:\workSpace\ideaMavenData\org\springframework\boot\spring-boot-starter-test\2.7.8-SNAPSHOT\spring-boot-starter-test-2.7.8-SNAPSHOT.jar;D:\workSpace\ideaMavenData\org\springframework\boot\spring-boot-test\2.7.8-SNAPSHOT\spring-boot-test-2.7.8-SNAPSHOT.jar;D:\workSpace\ideaMavenData\org\springframework\boot\spring-boot-test-autoconfigure\2.7.8-SNAPSHOT\spring-boot-test-autoconfigure-2.7.8-SNAPSHOT.jar;D:\workSpace\ideaMavenData\com\jayway\jsonpath\json-path\2.7.0\json-path-2.7.0.jar;D:\workSpace\ideaMavenData\net\minidev\json-smart\2.4.8\json-smart-2.4.8.jar;D:\workSpace\ideaMavenData\net\minidev\accessors-smart\2.4.8\accessors-smart-2.4.8.jar;D:\workSpace\ideaMavenData\org\ow2\asm\asm\9.1\asm-9.1.jar;D:\workSpace\ideaMavenData\org\slf4j\slf4j-api\1.7.36\slf4j-api-1.7.36.jar;D:\workSpace\ideaMavenData\jakarta\xml\bind\jakarta.xml.bind-api\2.3.3\jakarta.xml.bind-api-2.3.3.jar;D:\workSpace\ideaMavenData\jakarta\activation\jakarta.activation-api\1.2.2\jakarta.activation-api-1.2.2.jar;D:\workSpace\ideaMavenData\org\assertj\assertj-core\3.22.0\assertj-core-3.22.0.jar;D:\workSpace\ideaMavenData\org\hamcrest\hamcrest\2.2\hamcrest-2.2.jar;D:\workSpace\ideaMavenData\org\junit\jupiter\junit-jupiter\5.8.2\junit-jupiter-5.8.2.jar;D:\workSpace\ideaMavenData\org\junit\jupiter\junit-jupiter-api\5.8.2\junit-jupiter-api-5.8.2.jar;D:\workSpace\ideaMavenData\org\opentest4j\opentest4j\1.2.0\opentest4j-1.2.0.jar;D:\workSpace\ideaMavenData\org\junit\platform\junit-platform-commons\1.8.2\junit-platform-commons-1.8.2.jar;D:\workSpace\ideaMavenData\org\apiguardian\apiguardian-api\1.1.2\apiguardian-api-1.1.2.jar;D:\workSpace\ideaMavenData\org\junit\jupiter\junit-jupiter-params\5.8.2\junit-jupiter-params-5.8.2.jar;D:\workSpace\ideaMavenData\org\junit\jupiter\junit-jupiter-engine\5.8.2\junit-jupiter-engine-5.8.2.jar;D:\workSpace\ideaMavenData\org\junit\platform\junit-platform-engine\1.8.2\junit-platform-engine-1.8.2.jar;D:\workSpace\ideaMavenData\org\mockito\mockito-core\4.5.1\mockito-core-4.5.1.jar;D:\workSpace\ideaMavenData\net\bytebuddy\byte-buddy\1.12.22\byte-buddy-1.12.22.jar;D:\workSpace\ideaMavenData\net\bytebuddy\byte-buddy-agent\1.12.22\byte-buddy-agent-1.12.22.jar;D:\workSpace\ideaMavenData\org\objenesis\objenesis\3.2\objenesis-3.2.jar;D:\workSpace\ideaMavenData\org\mockito\mockito-junit-jupiter\4.5.1\mockito-junit-jupiter-4.5.1.jar;D:\workSpace\ideaMavenData\org\skyscreamer\jsonassert\1.5.1\jsonassert-1.5.1.jar;D:\workSpace\ideaMavenData\com\vaadin\external\google\android-json\0.0.20131108.vaadin1\android-json-0.0.20131108.vaadin1.jar;D:\workSpace\ideaMavenData\org\springframework\spring-core\5.3.25\spring-core-5.3.25.jar;D:\workSpace\ideaMavenData\org\springframework\spring-jcl\5.3.25\spring-jcl-5.3.25.jar;D:\workSpace\ideaMavenData\org\springframework\spring-test\5.3.25\spring-test-5.3.25.jar;D:\workSpace\ideaMavenData\org\xmlunit\xmlunit-core\2.9.1\xmlunit-core-2.9.1.jar;D:\workSpace\ideaMavenData\org\projectlombok\lombok\1.18.24\lombok-1.18.24.jar;D:\workSpace\ideaMavenData\com\baomidou\mybatis-plus-boot-starter\3.5.2\mybatis-plus-boot-starter-3.5.2.jar;D:\workSpace\ideaMavenData\com\baomidou\mybatis-plus\3.5.2\mybatis-plus-3.5.2.jar;D:\workSpace\ideaMavenData\com\baomidou\mybatis-plus-extension\3.5.2\mybatis-plus-extension-3.5.2.jar;D:\workSpace\ideaMavenData\com\baomidou\mybatis-plus-core\3.5.2\mybatis-plus-core-3.5.2.jar;D:\workSpace\ideaMavenData\com\baomidou\mybatis-plus-annotation\3.5.2\mybatis-plus-annotation-3.5.2.jar;D:\workSpace\ideaMavenData\com\github\jsqlparser\jsqlparser\4.4\jsqlparser-4.4.jar;D:\workSpace\ideaMavenData\org\mybatis\mybatis\3.5.10\mybatis-3.5.10.jar;D:\workSpace\ideaMavenData\org\mybatis\mybatis-spring\2.0.7\mybatis-spring-2.0.7.jar;D:\workSpace\ideaMavenData\org\jetbrains\kotlin\kotlin-stdlib-jdk8\1.6.21\kotlin-stdlib-jdk8-1.6.21.jar;D:\workSpace\ideaMavenData\org\jetbrains\kotlin\kotlin-stdlib\1.6.21\kotlin-stdlib-1.6.21.jar;D:\workSpace\ideaMavenData\org\jetbrains\kotlin\kotlin-stdlib-common\1.6.21\kotlin-stdlib-common-1.6.21.jar;D:\workSpace\ideaMavenData\org\jetbrains\annotations\13.0\annotations-13.0.jar;D:\workSpace\ideaMavenData\org\jetbrains\kotlin\kotlin-stdlib-jdk7\1.6.21\kotlin-stdlib-jdk7-1.6.21.jar;D:\workSpace\ideaMavenData\org\springframework\boot\spring-boot-autoconfigure\2.7.8-SNAPSHOT\spring-boot-autoconfigure-2.7.8-SNAPSHOT.jar;D:\workSpace\ideaMavenData\org\springframework\boot\spring-boot-starter-jdbc\2.7.8-SNAPSHOT\spring-boot-starter-jdbc-2.7.8-SNAPSHOT.jar;D:\workSpace\ideaMavenData\com\zaxxer\HikariCP\4.0.3\HikariCP-4.0.3.jar;D:\workSpace\ideaMavenData\org\springframework\spring-jdbc\5.3.25\spring-jdbc-5.3.25.jar;D:\workSpace\ideaMavenData\org\springframework\spring-tx\5.3.25\spring-tx-5.3.25.jar;D:\workSpace\ideaMavenData\mysql\mysql-connector-java\8.0.18\mysql-connector-java-8.0.18.jar;D:\workSpace\ideaMavenData\com\google\protobuf\protobuf-java\3.6.1\protobuf-java-3.6.1.jar;D:\workSpace\ideaMavenData\com\alibaba\fastjson\2.0.21.graal\fastjson-2.0.21.graal.jar;D:\workSpace\ideaMavenData\com\alibaba\fastjson2\fastjson2-extension\2.0.21.graal\fastjson2-extension-2.0.21.graal.jar;D:\workSpace\ideaMavenData\com\alibaba\fastjson2\fastjson2\2.0.21.graal\fastjson2-2.0.21.graal.jar;"/>
    <property name="java.vm.vendor" value="Oracle Corporation"/>
    <property name="sun.arch.data.model" value="64"/>
    <property name="user.variant" value=""/>
    <property name="java.vendor.url" value="http://java.oracle.com/"/>
    <property name="user.timezone" value="Asia/Shanghai"/>
    <property name="java.vm.specification.version" value="1.8"/>
    <property name="os.name" value="Windows 10"/>
    <property name="user.country" value="CN"/>
    <property name="sun.java.launcher" value="SUN_STANDARD"/>
    <property name="sun.boot.library.path" value="C:\Program Files\Java\jdk1.8.0_144\jre\bin"/>
    <property name="sun.java.command" value="C:\Users\zzzy\AppData\Local\Temp\surefire2612988191926880934\surefirebooter5217542796209543842.jar C:\Users\zzzy\AppData\Local\Temp\surefire2612988191926880934 2023-11-20T18-27-13_864-jvmRun1 surefire652110819814666941tmp surefire_02771701988324588745tmp"/>
    <property name="surefire.test.class.path" value="D:\test\global_exception_handel\target\test-classes;D:\test\global_exception_handel\target\classes;D:\workSpace\ideaMavenData\org\springframework\boot\spring-boot-starter-web\2.7.8-SNAPSHOT\spring-boot-starter-web-2.7.8-SNAPSHOT.jar;D:\workSpace\ideaMavenData\org\springframework\boot\spring-boot-starter\2.7.8-SNAPSHOT\spring-boot-starter-2.7.8-SNAPSHOT.jar;D:\workSpace\ideaMavenData\org\springframework\boot\spring-boot\2.7.8-SNAPSHOT\spring-boot-2.7.8-SNAPSHOT.jar;D:\workSpace\ideaMavenData\org\springframework\boot\spring-boot-starter-logging\2.7.8-SNAPSHOT\spring-boot-starter-logging-2.7.8-SNAPSHOT.jar;D:\workSpace\ideaMavenData\ch\qos\logback\logback-classic\1.2.11\logback-classic-1.2.11.jar;D:\workSpace\ideaMavenData\ch\qos\logback\logback-core\1.2.11\logback-core-1.2.11.jar;D:\workSpace\ideaMavenData\org\apache\logging\log4j\log4j-to-slf4j\2.17.2\log4j-to-slf4j-2.17.2.jar;D:\workSpace\ideaMavenData\org\apache\logging\log4j\log4j-api\2.17.2\log4j-api-2.17.2.jar;D:\workSpace\ideaMavenData\org\slf4j\jul-to-slf4j\1.7.36\jul-to-slf4j-1.7.36.jar;D:\workSpace\ideaMavenData\jakarta\annotation\jakarta.annotation-api\1.3.5\jakarta.annotation-api-1.3.5.jar;D:\workSpace\ideaMavenData\org\yaml\snakeyaml\1.30\snakeyaml-1.30.jar;D:\workSpace\ideaMavenData\org\springframework\boot\spring-boot-starter-json\2.7.8-SNAPSHOT\spring-boot-starter-json-2.7.8-SNAPSHOT.jar;D:\workSpace\ideaMavenData\com\fasterxml\jackson\core\jackson-databind\2.13.4.2\jackson-databind-2.13.4.2.jar;D:\workSpace\ideaMavenData\com\fasterxml\jackson\core\jackson-annotations\2.13.4\jackson-annotations-2.13.4.jar;D:\workSpace\ideaMavenData\com\fasterxml\jackson\core\jackson-core\2.13.4\jackson-core-2.13.4.jar;D:\workSpace\ideaMavenData\com\fasterxml\jackson\datatype\jackson-datatype-jdk8\2.13.4\jackson-datatype-jdk8-2.13.4.jar;D:\workSpace\ideaMavenData\com\fasterxml\jackson\datatype\jackson-datatype-jsr310\2.13.4\jackson-datatype-jsr310-2.13.4.jar;D:\workSpace\ideaMavenData\com\fasterxml\jackson\module\jackson-module-parameter-names\2.13.4\jackson-module-parameter-names-2.13.4.jar;D:\workSpace\ideaMavenData\org\springframework\boot\spring-boot-starter-tomcat\2.7.8-SNAPSHOT\spring-boot-starter-tomcat-2.7.8-SNAPSHOT.jar;D:\workSpace\ideaMavenData\org\apache\tomcat\embed\tomcat-embed-core\9.0.71\tomcat-embed-core-9.0.71.jar;D:\workSpace\ideaMavenData\org\apache\tomcat\embed\tomcat-embed-el\9.0.71\tomcat-embed-el-9.0.71.jar;D:\workSpace\ideaMavenData\org\apache\tomcat\embed\tomcat-embed-websocket\9.0.71\tomcat-embed-websocket-9.0.71.jar;D:\workSpace\ideaMavenData\org\springframework\spring-web\5.3.25\spring-web-5.3.25.jar;D:\workSpace\ideaMavenData\org\springframework\spring-beans\5.3.25\spring-beans-5.3.25.jar;D:\workSpace\ideaMavenData\org\springframework\spring-webmvc\5.3.25\spring-webmvc-5.3.25.jar;D:\workSpace\ideaMavenData\org\springframework\spring-aop\5.3.25\spring-aop-5.3.25.jar;D:\workSpace\ideaMavenData\org\springframework\spring-context\5.3.25\spring-context-5.3.25.jar;D:\workSpace\ideaMavenData\org\springframework\spring-expression\5.3.25\spring-expression-5.3.25.jar;D:\workSpace\ideaMavenData\org\springframework\boot\spring-boot-starter-test\2.7.8-SNAPSHOT\spring-boot-starter-test-2.7.8-SNAPSHOT.jar;D:\workSpace\ideaMavenData\org\springframework\boot\spring-boot-test\2.7.8-SNAPSHOT\spring-boot-test-2.7.8-SNAPSHOT.jar;D:\workSpace\ideaMavenData\org\springframework\boot\spring-boot-test-autoconfigure\2.7.8-SNAPSHOT\spring-boot-test-autoconfigure-2.7.8-SNAPSHOT.jar;D:\workSpace\ideaMavenData\com\jayway\jsonpath\json-path\2.7.0\json-path-2.7.0.jar;D:\workSpace\ideaMavenData\net\minidev\json-smart\2.4.8\json-smart-2.4.8.jar;D:\workSpace\ideaMavenData\net\minidev\accessors-smart\2.4.8\accessors-smart-2.4.8.jar;D:\workSpace\ideaMavenData\org\ow2\asm\asm\9.1\asm-9.1.jar;D:\workSpace\ideaMavenData\org\slf4j\slf4j-api\1.7.36\slf4j-api-1.7.36.jar;D:\workSpace\ideaMavenData\jakarta\xml\bind\jakarta.xml.bind-api\2.3.3\jakarta.xml.bind-api-2.3.3.jar;D:\workSpace\ideaMavenData\jakarta\activation\jakarta.activation-api\1.2.2\jakarta.activation-api-1.2.2.jar;D:\workSpace\ideaMavenData\org\assertj\assertj-core\3.22.0\assertj-core-3.22.0.jar;D:\workSpace\ideaMavenData\org\hamcrest\hamcrest\2.2\hamcrest-2.2.jar;D:\workSpace\ideaMavenData\org\junit\jupiter\junit-jupiter\5.8.2\junit-jupiter-5.8.2.jar;D:\workSpace\ideaMavenData\org\junit\jupiter\junit-jupiter-api\5.8.2\junit-jupiter-api-5.8.2.jar;D:\workSpace\ideaMavenData\org\opentest4j\opentest4j\1.2.0\opentest4j-1.2.0.jar;D:\workSpace\ideaMavenData\org\junit\platform\junit-platform-commons\1.8.2\junit-platform-commons-1.8.2.jar;D:\workSpace\ideaMavenData\org\apiguardian\apiguardian-api\1.1.2\apiguardian-api-1.1.2.jar;D:\workSpace\ideaMavenData\org\junit\jupiter\junit-jupiter-params\5.8.2\junit-jupiter-params-5.8.2.jar;D:\workSpace\ideaMavenData\org\junit\jupiter\junit-jupiter-engine\5.8.2\junit-jupiter-engine-5.8.2.jar;D:\workSpace\ideaMavenData\org\junit\platform\junit-platform-engine\1.8.2\junit-platform-engine-1.8.2.jar;D:\workSpace\ideaMavenData\org\mockito\mockito-core\4.5.1\mockito-core-4.5.1.jar;D:\workSpace\ideaMavenData\net\bytebuddy\byte-buddy\1.12.22\byte-buddy-1.12.22.jar;D:\workSpace\ideaMavenData\net\bytebuddy\byte-buddy-agent\1.12.22\byte-buddy-agent-1.12.22.jar;D:\workSpace\ideaMavenData\org\objenesis\objenesis\3.2\objenesis-3.2.jar;D:\workSpace\ideaMavenData\org\mockito\mockito-junit-jupiter\4.5.1\mockito-junit-jupiter-4.5.1.jar;D:\workSpace\ideaMavenData\org\skyscreamer\jsonassert\1.5.1\jsonassert-1.5.1.jar;D:\workSpace\ideaMavenData\com\vaadin\external\google\android-json\0.0.20131108.vaadin1\android-json-0.0.20131108.vaadin1.jar;D:\workSpace\ideaMavenData\org\springframework\spring-core\5.3.25\spring-core-5.3.25.jar;D:\workSpace\ideaMavenData\org\springframework\spring-jcl\5.3.25\spring-jcl-5.3.25.jar;D:\workSpace\ideaMavenData\org\springframework\spring-test\5.3.25\spring-test-5.3.25.jar;D:\workSpace\ideaMavenData\org\xmlunit\xmlunit-core\2.9.1\xmlunit-core-2.9.1.jar;D:\workSpace\ideaMavenData\org\projectlombok\lombok\1.18.24\lombok-1.18.24.jar;D:\workSpace\ideaMavenData\com\baomidou\mybatis-plus-boot-starter\3.5.2\mybatis-plus-boot-starter-3.5.2.jar;D:\workSpace\ideaMavenData\com\baomidou\mybatis-plus\3.5.2\mybatis-plus-3.5.2.jar;D:\workSpace\ideaMavenData\com\baomidou\mybatis-plus-extension\3.5.2\mybatis-plus-extension-3.5.2.jar;D:\workSpace\ideaMavenData\com\baomidou\mybatis-plus-core\3.5.2\mybatis-plus-core-3.5.2.jar;D:\workSpace\ideaMavenData\com\baomidou\mybatis-plus-annotation\3.5.2\mybatis-plus-annotation-3.5.2.jar;D:\workSpace\ideaMavenData\com\github\jsqlparser\jsqlparser\4.4\jsqlparser-4.4.jar;D:\workSpace\ideaMavenData\org\mybatis\mybatis\3.5.10\mybatis-3.5.10.jar;D:\workSpace\ideaMavenData\org\mybatis\mybatis-spring\2.0.7\mybatis-spring-2.0.7.jar;D:\workSpace\ideaMavenData\org\jetbrains\kotlin\kotlin-stdlib-jdk8\1.6.21\kotlin-stdlib-jdk8-1.6.21.jar;D:\workSpace\ideaMavenData\org\jetbrains\kotlin\kotlin-stdlib\1.6.21\kotlin-stdlib-1.6.21.jar;D:\workSpace\ideaMavenData\org\jetbrains\kotlin\kotlin-stdlib-common\1.6.21\kotlin-stdlib-common-1.6.21.jar;D:\workSpace\ideaMavenData\org\jetbrains\annotations\13.0\annotations-13.0.jar;D:\workSpace\ideaMavenData\org\jetbrains\kotlin\kotlin-stdlib-jdk7\1.6.21\kotlin-stdlib-jdk7-1.6.21.jar;D:\workSpace\ideaMavenData\org\springframework\boot\spring-boot-autoconfigure\2.7.8-SNAPSHOT\spring-boot-autoconfigure-2.7.8-SNAPSHOT.jar;D:\workSpace\ideaMavenData\org\springframework\boot\spring-boot-starter-jdbc\2.7.8-SNAPSHOT\spring-boot-starter-jdbc-2.7.8-SNAPSHOT.jar;D:\workSpace\ideaMavenData\com\zaxxer\HikariCP\4.0.3\HikariCP-4.0.3.jar;D:\workSpace\ideaMavenData\org\springframework\spring-jdbc\5.3.25\spring-jdbc-5.3.25.jar;D:\workSpace\ideaMavenData\org\springframework\spring-tx\5.3.25\spring-tx-5.3.25.jar;D:\workSpace\ideaMavenData\mysql\mysql-connector-java\8.0.18\mysql-connector-java-8.0.18.jar;D:\workSpace\ideaMavenData\com\google\protobuf\protobuf-java\3.6.1\protobuf-java-3.6.1.jar;D:\workSpace\ideaMavenData\com\alibaba\fastjson\2.0.21.graal\fastjson-2.0.21.graal.jar;D:\workSpace\ideaMavenData\com\alibaba\fastjson2\fastjson2-extension\2.0.21.graal\fastjson2-extension-2.0.21.graal.jar;D:\workSpace\ideaMavenData\com\alibaba\fastjson2\fastjson2\2.0.21.graal\fastjson2-2.0.21.graal.jar;"/>
    <property name="sun.cpu.endian" value="little"/>
    <property name="user.home" value="C:\Users\zzzy"/>
    <property name="user.language" value="zh"/>
    <property name="java.specification.vendor" value="Oracle Corporation"/>
    <property name="java.home" value="C:\Program Files\Java\jdk1.8.0_144\jre"/>
    <property name="basedir" value="D:\test\global_exception_handel"/>
    <property name="file.separator" value="\"/>
    <property name="line.separator" value="&#10;"/>
    <property name="java.vm.specification.vendor" value="Oracle Corporation"/>
    <property name="java.specification.name" value="Java Platform API Specification"/>
    <property name="java.awt.graphicsenv" value="sun.awt.Win32GraphicsEnvironment"/>
    <property name="surefire.real.class.path" value="C:\Users\zzzy\AppData\Local\Temp\surefire2612988191926880934\surefirebooter5217542796209543842.jar"/>
    <property name="sun.boot.class.path" value="C:\Program Files\Java\jdk1.8.0_144\jre\lib\resources.jar;C:\Program Files\Java\jdk1.8.0_144\jre\lib\rt.jar;C:\Program Files\Java\jdk1.8.0_144\jre\lib\sunrsasign.jar;C:\Program Files\Java\jdk1.8.0_144\jre\lib\jsse.jar;C:\Program Files\Java\jdk1.8.0_144\jre\lib\jce.jar;C:\Program Files\Java\jdk1.8.0_144\jre\lib\charsets.jar;C:\Program Files\Java\jdk1.8.0_144\jre\lib\jfr.jar;C:\Program Files\Java\jdk1.8.0_144\jre\classes"/>
    <property name="user.script" value=""/>
    <property name="sun.management.compiler" value="HotSpot 64-Bit Tiered Compilers"/>
    <property name="java.runtime.version" value="1.8.0_144-b01"/>
    <property name="user.name" value="zzzy"/>
    <property name="path.separator" value=";"/>
    <property name="os.version" value="10.0"/>
    <property name="java.endorsed.dirs" value="C:\Program Files\Java\jdk1.8.0_144\jre\lib\endorsed"/>
    <property name="java.runtime.name" value="Java(TM) SE Runtime Environment"/>
    <property name="file.encoding" value="GBK"/>
    <property name="java.vm.name" value="Java HotSpot(TM) 64-Bit Server VM"/>
    <property name="idea.version2020.1" value="true"/>
    <property name="localRepository" value="D:\workSpace\ideaMavenData"/>
    <property name="java.vendor.url.bug" value="http://bugreport.sun.com/bugreport/"/>
    <property name="java.io.tmpdir" value="C:\Users\zzzy\AppData\Local\Temp\"/>
    <property name="java.version" value="1.8.0_144"/>
    <property name="user.dir" value="D:\test\global_exception_handel"/>
    <property name="os.arch" value="amd64"/>
    <property name="java.vm.specification.name" value="Java Virtual Machine Specification"/>
    <property name="java.awt.printerjob" value="sun.awt.windows.WPrinterJob"/>
    <property name="sun.os.patch.level" value=""/>
    <property name="java.library.path" value="C:\Program Files\Java\jdk1.8.0_144\jre\bin;C:\Windows\Sun\Java\bin;C:\Windows\system32;C:\Windows;C:\Program Files (x86)\Common Files\Oracle\Java\javapath;C:\Python312\Scripts\;C:\Python312\;C:\Program Files\Java\jdk1.8.0_144\bin;C:\Windows\system32;C:\Windows;C:\Windows\System32\Wbem;C:\Windows\System32\WindowsPowerShell\v1.0\;C:\Windows\System32\OpenSSH\;D:\softwares\Work\Development\PYTHON\ENV\anaconda;D:\softwares\Work\Development\PYTHON\ENV\anaconda\Scripts;D:\softwares\Work\Development\PYTHON\ENV\anaconda\Library;D:\software\Git\Git\cmd;D:\software\apacheMaven\apache-maven-3.6.1\bin;D:\software\xshell\;D:\software\xftp\;%Elasticsearch_Server\bin%;C:\ProgramData\chocolatey\bin;D:\software\nodeJs\;D:\software\MYSQL\bin;C:\Users\zzzy\AppData\Local\Microsoft\WindowsApps;;D:\software\idea\IntelliJ IDEA 2020.1\bin;;C:\Users\zzzy\AppData\Roaming\npm;."/>
    <property name="java.vm.info" value="mixed mode"/>
    <property name="java.vendor" value="Oracle Corporation"/>
    <property name="java.vm.version" value="25.144-b01"/>
    <property name="java.ext.dirs" value="C:\Program Files\Java\jdk1.8.0_144\jre\lib\ext;C:\Windows\Sun\Java\lib\ext"/>
    <property name="sun.io.unicode.encoding" value="UnicodeLittle"/>
    <property name="java.class.version" value="52.0"/>
  </properties>
  <testcase name="contextLoads" classname="com.example.globalexceptionhandler.GlobalexceptionhandlerApplicationTests" time="0.178"/>
</testsuite>